<svg xmlns="http://www.w3.org/2000/svg" version="1.1" height="100" width="100">
<circle cx="50" cy="50" r="50" fill="#151515"/>
<path d="m28 31 44 38m0-38-44 38" stroke="#343434" stroke-width="8"/></svg>
