<svg width="100" height="100" version="1.1" xmlns="http://www.w3.org/2000/svg">
<polyline points="20 26 20 4 92 4 92 92 22 92 22 74" fill="none" opacity=".8" stroke="#343434" stroke-linejoin="round" stroke-width="10"/>
<polyline points="22 26 22 7 95 7 95 95 20 95 20 74" fill="none" stroke="#151515" stroke-linejoin="round" stroke-width="10"/>
<polyline points="0 29 45 29 45 11 90 49 44 90 44 71 0 71" fill="#343434" opacity=".8"/>
<polyline points="0 31 45 31 45 13 90 51 45 89 45 70 0 70" fill="#151515"/></svg>
