<svg width="100" height="100" version="1.1" xmlns="http://www.w3.org/2000/svg">
<radialGradient id="grad1">
<stop stop-color="#151515" offset="0"/>
<stop stop-color="#343434" offset="1"/>
</radialGradient>
<path d="m63 80h27v-34" fill="none" stroke="#0365BC" stroke-linejoin="round" stroke-width="10"/>
<rect x="39" width="61" height="52" rx="8" fill="#0365BC"/>
<rect x="8" y="50" width="61" height="52" rx="8" fill="#0365BC"/>
<g fill="url(#grad1)" stroke="#151515" stroke-width="3">
<rect x="-15" y="5" width="50" height="40" rx="8"/>
<rect x="45" y="5" width="50" height="40" rx="8"/>
<rect x="13" y="55" width="50" height="40" rx="8"/>
</g>
</svg>
