<svg width="100" height="100" version="1.1" xmlns="http://www.w3.org/2000/svg">
<path d="m40 64h-6l-5-6-6-5v-40l6-5 5-6h18l5 6 6 5v40l-6 5-5 6h-7v-12h7l2-2v-33l-3-2.5-2-3.5h-12l-2 3.5-3 2.5v33l2 2h7z" fill="#7b7a79" stroke="#151515" stroke-width="4"/>
<path d="m54 33h-4l-5 6-6 6v39l6 6 5 6h18l5-6 6-6v-39l-6-6-5-6h-5v13h5l2 2v33l-3 2-2 3h-12l-2-3-3-2v-33 2l2-4h4z" fill="#7b7a79" stroke="#151515" stroke-width="4"/>
</svg>
