<svg width="100" height="100" version="1.1" xmlns="http://www.w3.org/2000/svg">
<defs>
<linearGradient id="grad1">
<stop stop-color="#7b7675" offset="0"/>
<stop stop-color="#353130" offset=".5"/>
<stop stop-color="#7b7675" offset="1"/>
</linearGradient>
</defs>
<rect x="16" y="1" width="70" height="98" rx="15" fill="url(#grad1)" stroke="#000" stroke-width="2"/>
<path d="m16 40h69" stroke="#000" stroke-width="4"/>
<path d="m39 2v37h24v-37"/>
<path d="m50.5 38-10.5-12 7 3v-6h7v6l7-3zm0-20-10.5-12 7 3v-6h7v6l7-3" fill="#a4a6a3"/>
</svg>
