<svg width="100" height="100" version="1.1" xmlns="http://www.w3.org/2000/svg">
<g stroke="#151515">
<path d="m33 49 3-39h63v39h-66v-49h26v6h38l2 2v2m-99 89 3-39h63v39h-66v-49h26v6h38l2 4" fill="#343434"/>
<path d="m0 99 3-39h63v39h-66v-49h26v6h38l2 4" fill="#5F6164"/>
<path d="m66 83h24l3-3v-20h7l-11-11-11 11h7v15h-19m-33-61h-24l-2 2v21h-7l10.5 11 10.5-11h-7v-16h19" fill="#151515" stroke-linejoin="round"/>
<path d="m33 14h-24l-2 2v21h-7l10.5 11 10.5-11h-7v-16h19" fill="#151515" stroke-linejoin="round"/>
</g>
</svg>
