<svg width="100" height="100" version="1.1" xmlns="http://www.w3.org/2000/svg">
<rect x="-2" y="14" width="104" height="72" fill="#32597B" stroke="#B7B7B7" stroke-width="2"/>
<rect x="-1" y="16" width="17" height="68" fill="#B7B7B7" stroke="#9eb2c4"/>
<path d="m26 40h15v4h15v17h-30zm41 25v-19h-4v-3h4v-9h10v4h-5v5h5v3h-5v19zm14 0v-22h5v22zm11 0v-31h5v31z" fill="#B7B7B7" stroke="#9eb2c4"/></svg>
