<svg xmlns="http://www.w3.org/2000/svg" version="1.1" height="100" width="100">
 <defs>
  <linearGradient id="grad1" x1="100%" x2="0%" y2="100%">
   <stop stop-color="#7b8083" offset="0"/>
   <stop stop-color="#016041" offset="1"/>
  </linearGradient>
  <linearGradient id="grad2" x2="0%" y2="100%">
   <stop stop-color="#343434" offset="0"/>
   <stop offset=".35"/>
  </linearGradient>
  <linearGradient id="grad3" y2="100%">
   <stop offset="0"/>
   <stop offset=".5"/>
   <stop stop-color="#343434" offset=".51"/>
   <stop stop-color="#fff" offset=".7"/>
   <stop stop-color="#fff" offset="1"/>
  </linearGradient>
 </defs>
 <path d="m35 75 5 15-20 10h60l-21-10 5-15" fill="url(#grad2)"/>
 <g stroke="#000">
  <rect x="1" y="6" width="98" height="69" rx="2" fill="url(#grad1)" stroke-width="4"/>
  <rect x="1" y="6" width="98" height="69" rx="2" fill="url(#grad3)" opacity=".1" stroke-width="4"/>
  <rect x="1" y="6" width="30" height="30" rx=".5" fill="url(#grad3)"/>
 </g>
</svg>
